^C:\USERS\DEVSTATION1\DROPBOX\CPP\SDL COURSES\SDL_CHAPTER1\SDL_CHAPTER1\ANIMATEDGRAPHIC.CPP|C:\USERS\DEVSTATION1\DROPBOX\CPP\SDL COURSES\SDL_CHAPTER1\SDL_CHAPTER1\ENEMY.CPP|C:\USERS\DEVSTATION1\DROPBOX\CPP\SDL COURSES\SDL_CHAPTER1\SDL_CHAPTER1\GAME.CPP|C:\USERS\DEVSTATION1\DROPBOX\CPP\SDL COURSES\SDL_CHAPTER1\SDL_CHAPTER1\GAMEOVERSTATE.CPP|C:\USERS\DEVSTATION1\DROPBOX\CPP\SDL COURSES\SDL_CHAPTER1\SDL_CHAPTER1\GAMESTATE.CPP|C:\USERS\DEVSTATION1\DROPBOX\CPP\SDL COURSES\SDL_CHAPTER1\SDL_CHAPTER1\GAMESTATEMACHINE.CPP|C:\USERS\DEVSTATION1\DROPBOX\CPP\SDL COURSES\SDL_CHAPTER1\SDL_CHAPTER1\INPUTHANDLER.CPP|C:\USERS\DEVSTATION1\DROPBOX\CPP\SDL COURSES\SDL_CHAPTER1\SDL_CHAPTER1\MAIN.CPP|C:\USERS\DEVSTATION1\DROPBOX\CPP\SDL COURSES\SDL_CHAPTER1\SDL_CHAPTER1\MENUBUTTON.CPP|C:\USERS\DEVSTATION1\DROPBOX\CPP\SDL COURSES\SDL_CHAPTER1\SDL_CHAPTER1\MENUSTATE.CPP|C:\USERS\DEVSTATION1\DROPBOX\CPP\SDL COURSES\SDL_CHAPTER1\SDL_CHAPTER1\PAUSESTATE.CPP|C:\USERS\DEVSTATION1\DROPBOX\CPP\SDL COURSES\SDL_CHAPTER1\SDL_CHAPTER1\PLAYER.CPP|C:\USERS\DEVSTATION1\DROPBOX\CPP\SDL COURSES\SDL_CHAPTER1\SDL_CHAPTER1\PLAYSTATE.CPP|C:\USERS\DEVSTATION1\DROPBOX\CPP\SDL COURSES\SDL_CHAPTER1\SDL_CHAPTER1\SDLGAMEOBJECT.CPP|C:\USERS\DEVSTATION1\DROPBOX\CPP\SDL COURSES\SDL_CHAPTER1\SDL_CHAPTER1\TEXTUREMANAGER.CPP
C:\USERS\DEVSTATION1\DROPBOX\CPP\SDL COURSES\SDL_CHAPTER1\SDL_CHAPTER1\DEBUG\ANIMATEDGRAPHIC.OBJ
C:\USERS\DEVSTATION1\DROPBOX\CPP\SDL COURSES\SDL_CHAPTER1\SDL_CHAPTER1\DEBUG\ENEMY.OBJ
C:\USERS\DEVSTATION1\DROPBOX\CPP\SDL COURSES\SDL_CHAPTER1\SDL_CHAPTER1\DEBUG\GAME.OBJ
C:\USERS\DEVSTATION1\DROPBOX\CPP\SDL COURSES\SDL_CHAPTER1\SDL_CHAPTER1\DEBUG\GAMEOVERSTATE.OBJ
C:\USERS\DEVSTATION1\DROPBOX\CPP\SDL COURSES\SDL_CHAPTER1\SDL_CHAPTER1\DEBUG\GAMESTATE.OBJ
C:\USERS\DEVSTATION1\DROPBOX\CPP\SDL COURSES\SDL_CHAPTER1\SDL_CHAPTER1\DEBUG\GAMESTATEMACHINE.OBJ
C:\USERS\DEVSTATION1\DROPBOX\CPP\SDL COURSES\SDL_CHAPTER1\SDL_CHAPTER1\DEBUG\INPUTHANDLER.OBJ
C:\USERS\DEVSTATION1\DROPBOX\CPP\SDL COURSES\SDL_CHAPTER1\SDL_CHAPTER1\DEBUG\MAIN.OBJ
C:\USERS\DEVSTATION1\DROPBOX\CPP\SDL COURSES\SDL_CHAPTER1\SDL_CHAPTER1\DEBUG\MENUBUTTON.OBJ
C:\USERS\DEVSTATION1\DROPBOX\CPP\SDL COURSES\SDL_CHAPTER1\SDL_CHAPTER1\DEBUG\MENUSTATE.OBJ
C:\USERS\DEVSTATION1\DROPBOX\CPP\SDL COURSES\SDL_CHAPTER1\SDL_CHAPTER1\DEBUG\PAUSESTATE.OBJ
C:\USERS\DEVSTATION1\DROPBOX\CPP\SDL COURSES\SDL_CHAPTER1\SDL_CHAPTER1\DEBUG\PLAYER.OBJ
C:\USERS\DEVSTATION1\DROPBOX\CPP\SDL COURSES\SDL_CHAPTER1\SDL_CHAPTER1\DEBUG\PLAYSTATE.OBJ
C:\USERS\DEVSTATION1\DROPBOX\CPP\SDL COURSES\SDL_CHAPTER1\SDL_CHAPTER1\DEBUG\SDLGAMEOBJECT.OBJ
C:\USERS\DEVSTATION1\DROPBOX\CPP\SDL COURSES\SDL_CHAPTER1\SDL_CHAPTER1\DEBUG\TEXTUREMANAGER.OBJ
^C:\USERS\DEVSTATION1\DROPBOX\CPP\SDL COURSES\SDL_CHAPTER1\SDL_CHAPTER1\ANIMATEDGRAPHIC.CPP
C:\USERS\DEVSTATION1\DROPBOX\CPP\SDL COURSES\SDL_CHAPTER1\SDL_CHAPTER1\DEBUG\VC110.PDB
^C:\USERS\DEVSTATION1\DROPBOX\CPP\SDL COURSES\SDL_CHAPTER1\SDL_CHAPTER1\ENEMY.CPP
C:\USERS\DEVSTATION1\DROPBOX\CPP\SDL COURSES\SDL_CHAPTER1\SDL_CHAPTER1\DEBUG\VC110.PDB
^C:\USERS\DEVSTATION1\DROPBOX\CPP\SDL COURSES\SDL_CHAPTER1\SDL_CHAPTER1\GAME.CPP
C:\USERS\DEVSTATION1\DROPBOX\CPP\SDL COURSES\SDL_CHAPTER1\SDL_CHAPTER1\DEBUG\VC110.PDB
^C:\USERS\DEVSTATION1\DROPBOX\CPP\SDL COURSES\SDL_CHAPTER1\SDL_CHAPTER1\GAMEOVERSTATE.CPP
C:\USERS\DEVSTATION1\DROPBOX\CPP\SDL COURSES\SDL_CHAPTER1\SDL_CHAPTER1\DEBUG\VC110.PDB
^C:\USERS\DEVSTATION1\DROPBOX\CPP\SDL COURSES\SDL_CHAPTER1\SDL_CHAPTER1\GAMESTATE.CPP
C:\USERS\DEVSTATION1\DROPBOX\CPP\SDL COURSES\SDL_CHAPTER1\SDL_CHAPTER1\DEBUG\VC110.PDB
^C:\USERS\DEVSTATION1\DROPBOX\CPP\SDL COURSES\SDL_CHAPTER1\SDL_CHAPTER1\GAMESTATEMACHINE.CPP
C:\USERS\DEVSTATION1\DROPBOX\CPP\SDL COURSES\SDL_CHAPTER1\SDL_CHAPTER1\DEBUG\VC110.PDB
^C:\USERS\DEVSTATION1\DROPBOX\CPP\SDL COURSES\SDL_CHAPTER1\SDL_CHAPTER1\INPUTHANDLER.CPP
C:\USERS\DEVSTATION1\DROPBOX\CPP\SDL COURSES\SDL_CHAPTER1\SDL_CHAPTER1\DEBUG\VC110.PDB
^C:\USERS\DEVSTATION1\DROPBOX\CPP\SDL COURSES\SDL_CHAPTER1\SDL_CHAPTER1\MAIN.CPP
C:\USERS\DEVSTATION1\DROPBOX\CPP\SDL COURSES\SDL_CHAPTER1\SDL_CHAPTER1\DEBUG\VC110.PDB
^C:\USERS\DEVSTATION1\DROPBOX\CPP\SDL COURSES\SDL_CHAPTER1\SDL_CHAPTER1\MENUBUTTON.CPP
C:\USERS\DEVSTATION1\DROPBOX\CPP\SDL COURSES\SDL_CHAPTER1\SDL_CHAPTER1\DEBUG\VC110.PDB
^C:\USERS\DEVSTATION1\DROPBOX\CPP\SDL COURSES\SDL_CHAPTER1\SDL_CHAPTER1\MENUSTATE.CPP
C:\USERS\DEVSTATION1\DROPBOX\CPP\SDL COURSES\SDL_CHAPTER1\SDL_CHAPTER1\DEBUG\VC110.PDB
C:\USERS\DEVSTATION1\DROPBOX\CPP\SDL COURSES\SDL_CHAPTER1\SDL_CHAPTER1\DEBUG\MENUSTATE.OBJ
^C:\USERS\DEVSTATION1\DROPBOX\CPP\SDL COURSES\SDL_CHAPTER1\SDL_CHAPTER1\PAUSESTATE.CPP
C:\USERS\DEVSTATION1\DROPBOX\CPP\SDL COURSES\SDL_CHAPTER1\SDL_CHAPTER1\DEBUG\VC110.PDB
^C:\USERS\DEVSTATION1\DROPBOX\CPP\SDL COURSES\SDL_CHAPTER1\SDL_CHAPTER1\PLAYER.CPP
C:\USERS\DEVSTATION1\DROPBOX\CPP\SDL COURSES\SDL_CHAPTER1\SDL_CHAPTER1\DEBUG\VC110.PDB
^C:\USERS\DEVSTATION1\DROPBOX\CPP\SDL COURSES\SDL_CHAPTER1\SDL_CHAPTER1\PLAYSTATE.CPP
C:\USERS\DEVSTATION1\DROPBOX\CPP\SDL COURSES\SDL_CHAPTER1\SDL_CHAPTER1\DEBUG\VC110.PDB
^C:\USERS\DEVSTATION1\DROPBOX\CPP\SDL COURSES\SDL_CHAPTER1\SDL_CHAPTER1\SDLGAMEOBJECT.CPP
C:\USERS\DEVSTATION1\DROPBOX\CPP\SDL COURSES\SDL_CHAPTER1\SDL_CHAPTER1\DEBUG\VC110.PDB
^C:\USERS\DEVSTATION1\DROPBOX\CPP\SDL COURSES\SDL_CHAPTER1\SDL_CHAPTER1\TEXTUREMANAGER.CPP
C:\USERS\DEVSTATION1\DROPBOX\CPP\SDL COURSES\SDL_CHAPTER1\SDL_CHAPTER1\DEBUG\VC110.PDB
^C:\USERS\DEVSTATION1\DROPBOX\CPP\SDL COURSES\SDL_CHAPTER1\SDL_CHAPTER1\GAME.CPP|C:\USERS\DEVSTATION1\DROPBOX\CPP\SDL COURSES\SDL_CHAPTER1\SDL_CHAPTER1\GAMEOVERSTATE.CPP|C:\USERS\DEVSTATION1\DROPBOX\CPP\SDL COURSES\SDL_CHAPTER1\SDL_CHAPTER1\GAMESTATEMACHINE.CPP|C:\USERS\DEVSTATION1\DROPBOX\CPP\SDL COURSES\SDL_CHAPTER1\SDL_CHAPTER1\INPUTHANDLER.CPP|C:\USERS\DEVSTATION1\DROPBOX\CPP\SDL COURSES\SDL_CHAPTER1\SDL_CHAPTER1\MAIN.CPP|C:\USERS\DEVSTATION1\DROPBOX\CPP\SDL COURSES\SDL_CHAPTER1\SDL_CHAPTER1\MENUSTATE.CPP|C:\USERS\DEVSTATION1\DROPBOX\CPP\SDL COURSES\SDL_CHAPTER1\SDL_CHAPTER1\PAUSESTATE.CPP|C:\USERS\DEVSTATION1\DROPBOX\CPP\SDL COURSES\SDL_CHAPTER1\SDL_CHAPTER1\PLAYSTATE.CPP|C:\USERS\DEVSTATION1\DROPBOX\CPP\SDL COURSES\SDL_CHAPTER1\SDL_CHAPTER1\SDLGAMEOBJECT.CPP
C:\USERS\DEVSTATION1\DROPBOX\CPP\SDL COURSES\SDL_CHAPTER1\SDL_CHAPTER1\DEBUG\GAMESTATEMACHINE.OBJ
C:\USERS\DEVSTATION1\DROPBOX\CPP\SDL COURSES\SDL_CHAPTER1\SDL_CHAPTER1\DEBUG\GAME.OBJ
C:\USERS\DEVSTATION1\DROPBOX\CPP\SDL COURSES\SDL_CHAPTER1\SDL_CHAPTER1\DEBUG\GAMEOVERSTATE.OBJ
C:\USERS\DEVSTATION1\DROPBOX\CPP\SDL COURSES\SDL_CHAPTER1\SDL_CHAPTER1\DEBUG\INPUTHANDLER.OBJ
C:\USERS\DEVSTATION1\DROPBOX\CPP\SDL COURSES\SDL_CHAPTER1\SDL_CHAPTER1\DEBUG\MENUSTATE.OBJ
C:\USERS\DEVSTATION1\DROPBOX\CPP\SDL COURSES\SDL_CHAPTER1\SDL_CHAPTER1\DEBUG\PAUSESTATE.OBJ
C:\USERS\DEVSTATION1\DROPBOX\CPP\SDL COURSES\SDL_CHAPTER1\SDL_CHAPTER1\DEBUG\PLAYSTATE.OBJ
C:\USERS\DEVSTATION1\DROPBOX\CPP\SDL COURSES\SDL_CHAPTER1\SDL_CHAPTER1\DEBUG\SDLGAMEOBJECT.OBJ
C:\USERS\DEVSTATION1\DROPBOX\CPP\SDL COURSES\SDL_CHAPTER1\SDL_CHAPTER1\DEBUG\MAIN.OBJ
