^D:\DROPBOX\DROPBOX\CPP\SDL COURSES\SDL_CHAPTER1\SDL_CHAPTER1\ENEMY.CPP
/c /I"D:\Dropbox\Dropbox\Cpp\SDL2-2.0.1\include" /Zi /nologo /W3 /WX- /sdl /O2 /Oi /Oy- /GL /D _MBCS /Gm- /EHsc /MD /GS /Gy /fp:precise /Zc:wchar_t /Zc:forScope /Fo"RELEASE\\" /Fd"RELEASE\VC110.PDB" /Gd /TP /analyze- D:\DROPBOX\DROPBOX\CPP\SDL COURSES\SDL_CHAPTER1\SDL_CHAPTER1\ENEMY.CPP
^D:\DROPBOX\DROPBOX\CPP\SDL COURSES\SDL_CHAPTER1\SDL_CHAPTER1\GAME.CPP
/c /I"D:\Dropbox\Dropbox\Cpp\SDL2-2.0.1\include" /Zi /nologo /W3 /WX- /sdl /O2 /Oi /Oy- /GL /D _MBCS /Gm- /EHsc /MD /GS /Gy /fp:precise /Zc:wchar_t /Zc:forScope /Fo"RELEASE\\" /Fd"RELEASE\VC110.PDB" /Gd /TP /analyze- D:\DROPBOX\DROPBOX\CPP\SDL COURSES\SDL_CHAPTER1\SDL_CHAPTER1\GAME.CPP
^D:\DROPBOX\DROPBOX\CPP\SDL COURSES\SDL_CHAPTER1\SDL_CHAPTER1\GAMESTATEMACHINE.CPP
/c /I"D:\Dropbox\Dropbox\Cpp\SDL2-2.0.1\include" /Zi /nologo /W3 /WX- /sdl /O2 /Oi /Oy- /GL /D _MBCS /Gm- /EHsc /MD /GS /Gy /fp:precise /Zc:wchar_t /Zc:forScope /Fo"RELEASE\\" /Fd"RELEASE\VC110.PDB" /Gd /TP /analyze- D:\DROPBOX\DROPBOX\CPP\SDL COURSES\SDL_CHAPTER1\SDL_CHAPTER1\GAMESTATEMACHINE.CPP
^D:\DROPBOX\DROPBOX\CPP\SDL COURSES\SDL_CHAPTER1\SDL_CHAPTER1\INPUTHANDLER.CPP
/c /I"D:\Dropbox\Dropbox\Cpp\SDL2-2.0.1\include" /Zi /nologo /W3 /WX- /sdl /O2 /Oi /Oy- /GL /D _MBCS /Gm- /EHsc /MD /GS /Gy /fp:precise /Zc:wchar_t /Zc:forScope /Fo"RELEASE\\" /Fd"RELEASE\VC110.PDB" /Gd /TP /analyze- D:\DROPBOX\DROPBOX\CPP\SDL COURSES\SDL_CHAPTER1\SDL_CHAPTER1\INPUTHANDLER.CPP
^D:\DROPBOX\DROPBOX\CPP\SDL COURSES\SDL_CHAPTER1\SDL_CHAPTER1\MAIN.CPP
/c /I"D:\Dropbox\Dropbox\Cpp\SDL2-2.0.1\include" /Zi /nologo /W3 /WX- /sdl /O2 /Oi /Oy- /GL /D _MBCS /Gm- /EHsc /MD /GS /Gy /fp:precise /Zc:wchar_t /Zc:forScope /Fo"RELEASE\\" /Fd"RELEASE\VC110.PDB" /Gd /TP /analyze- D:\DROPBOX\DROPBOX\CPP\SDL COURSES\SDL_CHAPTER1\SDL_CHAPTER1\MAIN.CPP
^D:\DROPBOX\DROPBOX\CPP\SDL COURSES\SDL_CHAPTER1\SDL_CHAPTER1\MENUBUTTON.CPP
/c /I"D:\Dropbox\Dropbox\Cpp\SDL2-2.0.1\include" /Zi /nologo /W3 /WX- /sdl /O2 /Oi /Oy- /GL /D _MBCS /Gm- /EHsc /MD /GS /Gy /fp:precise /Zc:wchar_t /Zc:forScope /Fo"RELEASE\\" /Fd"RELEASE\VC110.PDB" /Gd /TP /analyze- D:\DROPBOX\DROPBOX\CPP\SDL COURSES\SDL_CHAPTER1\SDL_CHAPTER1\MENUBUTTON.CPP
^D:\DROPBOX\DROPBOX\CPP\SDL COURSES\SDL_CHAPTER1\SDL_CHAPTER1\MENUSTATE.CPP
/c /I"D:\Dropbox\Dropbox\Cpp\SDL2-2.0.1\include" /Zi /nologo /W3 /WX- /sdl /O2 /Oi /Oy- /GL /D _MBCS /Gm- /EHsc /MD /GS /Gy /fp:precise /Zc:wchar_t /Zc:forScope /Fo"RELEASE\\" /Fd"RELEASE\VC110.PDB" /Gd /TP /analyze- D:\DROPBOX\DROPBOX\CPP\SDL COURSES\SDL_CHAPTER1\SDL_CHAPTER1\MENUSTATE.CPP
^D:\DROPBOX\DROPBOX\CPP\SDL COURSES\SDL_CHAPTER1\SDL_CHAPTER1\PLAYER.CPP
/c /I"D:\Dropbox\Dropbox\Cpp\SDL2-2.0.1\include" /Zi /nologo /W3 /WX- /sdl /O2 /Oi /Oy- /GL /D _MBCS /Gm- /EHsc /MD /GS /Gy /fp:precise /Zc:wchar_t /Zc:forScope /Fo"RELEASE\\" /Fd"RELEASE\VC110.PDB" /Gd /TP /analyze- D:\DROPBOX\DROPBOX\CPP\SDL COURSES\SDL_CHAPTER1\SDL_CHAPTER1\PLAYER.CPP
^D:\DROPBOX\DROPBOX\CPP\SDL COURSES\SDL_CHAPTER1\SDL_CHAPTER1\PLAYSTATE.CPP
/c /I"D:\Dropbox\Dropbox\Cpp\SDL2-2.0.1\include" /Zi /nologo /W3 /WX- /sdl /O2 /Oi /Oy- /GL /D _MBCS /Gm- /EHsc /MD /GS /Gy /fp:precise /Zc:wchar_t /Zc:forScope /Fo"RELEASE\\" /Fd"RELEASE\VC110.PDB" /Gd /TP /analyze- D:\DROPBOX\DROPBOX\CPP\SDL COURSES\SDL_CHAPTER1\SDL_CHAPTER1\PLAYSTATE.CPP
^D:\DROPBOX\DROPBOX\CPP\SDL COURSES\SDL_CHAPTER1\SDL_CHAPTER1\SDLGAMEOBJECT.CPP
/c /I"D:\Dropbox\Dropbox\Cpp\SDL2-2.0.1\include" /Zi /nologo /W3 /WX- /sdl /O2 /Oi /Oy- /GL /D _MBCS /Gm- /EHsc /MD /GS /Gy /fp:precise /Zc:wchar_t /Zc:forScope /Fo"RELEASE\\" /Fd"RELEASE\VC110.PDB" /Gd /TP /analyze- D:\DROPBOX\DROPBOX\CPP\SDL COURSES\SDL_CHAPTER1\SDL_CHAPTER1\SDLGAMEOBJECT.CPP
^D:\DROPBOX\DROPBOX\CPP\SDL COURSES\SDL_CHAPTER1\SDL_CHAPTER1\TEXTUREMANAGER.CPP
/c /I"D:\Dropbox\Dropbox\Cpp\SDL2-2.0.1\include" /Zi /nologo /W3 /WX- /sdl /O2 /Oi /Oy- /GL /D _MBCS /Gm- /EHsc /MD /GS /Gy /fp:precise /Zc:wchar_t /Zc:forScope /Fo"RELEASE\\" /Fd"RELEASE\VC110.PDB" /Gd /TP /analyze- D:\DROPBOX\DROPBOX\CPP\SDL COURSES\SDL_CHAPTER1\SDL_CHAPTER1\TEXTUREMANAGER.CPP
