^D:\DROPBOX\DROPBOX\CPP\SDL COURSES\SDL_CHAPTER1\SDL_CHAPTER1\RELEASE\ENEMY.OBJ|D:\DROPBOX\DROPBOX\CPP\SDL COURSES\SDL_CHAPTER1\SDL_CHAPTER1\RELEASE\GAME.OBJ|D:\DROPBOX\DROPBOX\CPP\SDL COURSES\SDL_CHAPTER1\SDL_CHAPTER1\RELEASE\GAMESTATEMACHINE.OBJ|D:\DROPBOX\DROPBOX\CPP\SDL COURSES\SDL_CHAPTER1\SDL_CHAPTER1\RELEASE\INPUTHANDLER.OBJ|D:\DROPBOX\DROPBOX\CPP\SDL COURSES\SDL_CHAPTER1\SDL_CHAPTER1\RELEASE\MAIN.OBJ|D:\DROPBOX\DROPBOX\CPP\SDL COURSES\SDL_CHAPTER1\SDL_CHAPTER1\RELEASE\MENUBUTTON.OBJ|D:\DROPBOX\DROPBOX\CPP\SDL COURSES\SDL_CHAPTER1\SDL_CHAPTER1\RELEASE\MENUSTATE.OBJ|D:\DROPBOX\DROPBOX\CPP\SDL COURSES\SDL_CHAPTER1\SDL_CHAPTER1\RELEASE\PLAYER.OBJ|D:\DROPBOX\DROPBOX\CPP\SDL COURSES\SDL_CHAPTER1\SDL_CHAPTER1\RELEASE\PLAYSTATE.OBJ|D:\DROPBOX\DROPBOX\CPP\SDL COURSES\SDL_CHAPTER1\SDL_CHAPTER1\RELEASE\SDLGAMEOBJECT.OBJ|D:\DROPBOX\DROPBOX\CPP\SDL COURSES\SDL_CHAPTER1\SDL_CHAPTER1\RELEASE\TEXTUREMANAGER.OBJ
D:\DROPBOX\DROPBOX\CPP\SDL COURSES\SDL_CHAPTER1\RELEASE\SDL_CHAPTER1.EXE
D:\DROPBOX\DROPBOX\CPP\SDL COURSES\SDL_CHAPTER1\RELEASE\SDL_CHAPTER1.PDB
